{
    "CN": "Kubernetes",
    "key": {
      "algo": "rsa",
      "size": 2048
    },
    "names": [
        {
            "C": "<CERT_NAME_C>",
            "L": "<CERT_NAME_L>",
            "O": "<CERT_NAME_O>",
            "OU": "<CERT_NAME_OU>",
            "ST": "<CERT_NAME_ST>"
        }
    ]
}
